DealScan Loan Path
…
For company COLORADO INTERSTATE GAS COMPANY, L.L.C., it is previously known as “COLORADO INTERSTATE CORP” (ex 1976/01/19) and “COLORADO INTERSTATE GAS CO” (ex 1992/07/03) and was subsequently potentially (?) merged with KINDER MORGAN, INC, in maybe 2014. The firm is a subsidiary of El Paso Corporation (NYSE: EP).

Even with these, there are still a lot of missing amendment/restatements in the DealScan. E.g. 8-K. However, this issue may be because it is just a subsidiary and thus we may need to connect these dot and build this family-subsidiary connections.

Show the code

dt.DealScan_borrower_unifirm_deal %>% 
  select(-contains("linked_"), -contains("Remark")) %>% 
  mutate(flag_manual_renegotiation = replace_na(flag_manual_renegotiation, replace = FALSE)) %>% 
  group_by(gvkey_group1) %>% ## (1) collect all observations within the same group 
  arrange(Tranche_Active_Date) %>% 
  mutate(flag_Renegotiated = (Event_renegotiation | flag_renegotiation | flag_manual_renegotiation) ) 

# A tibble: 315,105 × 18
# Groups:   gvkey_group1 [21,424]
   firm_deal_id gvkey_group1 Deal_Active_Date Deal_Input_Date Deal_Amount
          <int>        <dbl> <date>           <date>                <dbl>
 1            1           NA 1981-06-15       1991-12-25              122
 2            2         4697 1982-04-20       1991-12-25              750
 3            3         2178 1982-06-29       1992-04-29              690
 4            4         2563 1982-11-18       1992-04-29              850
 5            5         2284 1982-12-27       1991-12-31             1000
 6            6          788 1983-12-15       1991-12-31              600
 7            7          765 1984-01-01       1992-04-29             1600
 8            8         3427 1984-02-13       1992-04-29             8000
 9            9          306 1984-03-05       1992-04-29            12000
10           10         2351 1984-03-15       1992-04-29             2500
# ℹ 315,095 more rows
# ℹ 13 more variables: LPC_Deal_ID <int>, Deal_Amended <chr>,
#   Deal_Refinancing <chr>, Event_amend <lgl>, Event_restate <lgl>,
#   Event_refin <lgl>, Event_renegotiation <lgl>, flag_renegotiation <lgl>,
#   Tranche_O_A <chr>, Tranche_Active_Date <date>, id_before <int>,
#   flag_manual_renegotiation <lgl>, flag_Renegotiated <lgl>
…
