Non-financial Liabilities and Restructuring
…
Show the code

data_did %>% 
  select(gvkey, dyear, contract_intensity_2000, dlc, dltt, at, book_leverage, sic, ff_30ind_name) %>% 
  filter(dyear >= 2002 & dyear <= 2007) %>% 
  arrange(-book_leverage) %>% 
  na.omit() 

# A tibble: 26,603 × 9
   gvkey dyear contract_intensity_2…¹    dlc    dltt      at book_leverage   sic
   <int> <int>                  <dbl>  <dbl>   <dbl>   <dbl>         <dbl> <int>
 1  8045  2006                 0       0.005 4.5 e-2 5   e-2         1      6500
 2 66660  2007                 0.0119  7.8   1.75e+3 1.76e+3         1.00   1520
 3 61584  2004                 1.48   19.6   6.97e+2 7.17e+2         1.00   8300
 4 13472  2002                 0.0844  0.196 2.89e+0 3.09e+0         0.999  3823
 5  8526  2004                 0.227   2.61  3.67e+1 3.94e+1         0.998  2834
 6 61108  2005                 0.441   0.2   3.3 e-1 5.31e-1         0.998  3826
 7 30950  2005                 0.0266  3.04  7.83e+2 7.88e+2         0.998  4833
 8  6773  2002                 0.466   0.854 3.40e+0 4.26e+0         0.998  7370
 9  8526  2003                 0.227   8.44  3.64e+1 4.50e+1         0.997  2834
10 12252  2005                 0.594   0     7.24e+1 7.26e+1         0.997  2836
# ℹ 26,593 more rows
# ℹ abbreviated name: ¹​contract_intensity_2000
# ℹ 1 more variable: ff_30ind_name <chr>
…
